Calculates a bunch of forest metrics — silv_summary • silviculture
…
- dclass_metrics: metrics summarized by .groups and diametric classes

- group_metrics: metrics summarized by .groups

    Examples

silv_summary(
  data      = inventory_samples,
  diameter  = diameter,
  height    = height,
  plot_size = 10,
  .groups   = c("plot_id", "species")
 )
#> $dclass_metrics
#> # A tibble: 57 × 9
#>    plot_id species dclass height ntrees ntrees_ha    h0    dg  g_ha
#>      <int>   <int>  <dbl>  <dbl>  <int>     <dbl> <dbl> <dbl> <dbl>
#>  1       7      27     50  18         3      95.5 19.7   57.9 18.8 
#>  2       7      27     55  17.6       5     159.  19.7   57.9 37.8 
#>  3       7      27     35  16.5       1      31.8 19.7   57.9  3.06
#>  4       7      27     45  14.6       2      63.7 19.7   57.9 10.1 
#>  5       7      27     60  19.1       3      95.5 19.7   57.9 27   
#>  6       7      27     25  12.9       1      31.8 19.7   57.9  1.56
#>  7       7      27    120  20.9       1      31.8 19.7   57.9 36   
#>  8       8      28     55  15.5       1      31.8 17.5   57.6  7.56
#>  9       8      28     60  19.5       1      31.8 17.5   57.6  9   
#> 10       8      81     10   5.87      3      95.5  6.39  16.2  0.75
#> # ℹ 47 more rows
…
